<?xml version="1.0" encoding="utf-8"?>
<!-- Generator: Adobe Illustrator 15.0.0, SVG Export Plug-In . SVG Version: 6.00 Build 0)  -->
<!DOCTYPE svg PUBLIC "-//W3C//DTD SVG 1.1//EN" "http://www.w3.org/Graphics/SVG/1.1/DTD/svg11.dtd">
<svg version="1.1" id="Layer_1" xmlns="http://www.w3.org/2000/svg" xmlns:xlink="http://www.w3.org/1999/xlink" x="0px" y="0px"
	 width="280px" height="45px" viewBox="50 15 280 45" enable-background="new 50 15 280 45" xml:space="preserve">
<g>
	<polygon fill="#E6E6E6" points="66.894,20.012 56.667,54.988 313.107,54.988 323.332,20.012 	"/>
	<g>
		<path fill="#414141" d="M141.519,31.665c1.606-2.658,4.348-5.096,8.779-5.096c4.57,0,8.004,2.438,8.004,8.114
			c0,1.08-0.249,3.905-1.745,6.619c-1.523,2.742-3.933,5.262-8.834,5.262c-5.512,0-8.115-3.323-8.115-7.893
			C139.608,36.844,139.996,34.241,141.519,31.665z M147.473,45.596c3.6,0,5.483-2.576,6.619-5.539
			c1.135-2.936,1.302-5.234,1.302-6.812c0-3.905-1.939-5.705-4.985-5.705c-2.936,0-4.902,2.021-6.176,4.652
			c-1.274,2.687-1.717,5.262-1.717,7.588C142.516,43.629,144.482,45.596,147.473,45.596z"/>
		<path fill="#414141" d="M162.313,35.155c0.194-0.831,0.249-1.274-0.416-1.33l-1.717-0.138l0.167-0.665l5.013-0.775l0.138,0.139
			l-1.579,5.843h0.083c2.105-3.96,4.847-5.981,6.979-5.981c2.049,0,3.074,1.302,3.074,3.711c0,2.104-1.855,10.523-8.641,10.523
			c-1.44,0-2.409-0.249-2.991-0.609l-1.523,6.647l-2.465,0.332L162.313,35.155z M165.138,45.513c4.542,0,6.176-7.34,6.176-9.527
			c0-1.468-0.499-2.298-1.496-2.298c-1.579,0-3.6,2.215-4.93,4.541c-1.052,1.855-1.828,4.681-2.188,6.453
			C163.31,45.208,164.058,45.513,165.138,45.513z"/>
		<path fill="#414141" d="M178.567,35.1c0.249-0.97,0.166-1.219-0.582-1.274l-1.579-0.138l0.166-0.665l5.041-0.775l0.138,0.139
			l-3.019,11.133c-0.25,0.886-0.277,1.523,0.277,1.523c0.775,0,1.994-1.967,2.493-2.936l0.665,0.388
			c-0.941,2.104-2.493,3.987-4.486,3.987c-1.496,0-1.856-1.135-1.44-2.714L178.567,35.1z M181.475,26.348
			c0.775,0,1.496,0.443,1.496,1.523c0,1.107-0.692,1.855-1.772,1.855c-0.831,0-1.523-0.526-1.523-1.551
			C179.675,27.29,180.284,26.348,181.475,26.348z"/>
		<path fill="#414141" d="M187.04,35.155c0.249-0.887,0.249-1.274-0.416-1.33l-1.717-0.138l0.166-0.665l5.068-0.775l0.139,0.139
			l-1.8,6.037h0.083c1.662-3.24,4.541-6.176,7.201-6.176c2.27,0,2.604,1.828,1.965,4.016l-2.16,7.256
			c-0.248,0.886-0.275,1.523,0.277,1.523c0.775,0,1.994-1.967,2.492-2.936l0.666,0.388c-0.941,2.104-2.492,3.987-4.57,3.987
			c-1.496,0-1.855-1.163-1.412-2.714l2.381-8.114c0.305-1.08,0.057-1.966-0.914-1.966c-2.242,0-4.901,4.043-5.926,6.425
			c-0.72,1.717-1.19,3.212-1.994,6.037l-2.438,0.332L187.04,35.155z"/>
		<path fill="#414141" d="M203.902,35.1c0.248-0.97,0.166-1.219-0.582-1.274l-1.578-0.138l0.166-0.665l5.039-0.775l0.139,0.139
			l-3.018,11.133c-0.25,0.886-0.277,1.523,0.277,1.523c0.775,0,1.992-1.967,2.492-2.936l0.664,0.388
			c-0.941,2.104-2.492,3.987-4.486,3.987c-1.496,0-1.855-1.135-1.439-2.714L203.902,35.1z M206.811,26.348
			c0.775,0,1.494,0.443,1.494,1.523c0,1.107-0.691,1.855-1.771,1.855c-0.832,0-1.523-0.526-1.523-1.551
			C205.01,27.29,205.619,26.348,206.811,26.348z"/>
		<path fill="#414141" d="M217.221,32.247c2.244,0,4.957,1.024,4.957,4.847c0,1.495-0.471,3.849-1.744,5.843
			c-1.301,2.05-3.24,3.545-6.26,3.545c-3.488,0-5.096-2.049-5.096-5.013C209.078,39.087,210.658,32.247,217.221,32.247z
			 M214.258,45.513c3.795,0,5.234-7.423,5.234-9.389c0-1.717-0.609-2.908-2.299-2.908c-3.656,0-5.428,6.37-5.428,9.361
			C211.766,44.543,212.652,45.513,214.258,45.513z M218.855,27.262c0.83-0.858,1.301-1.136,1.771-1.136
			c0.416,0,1.08,0.638,1.08,1.191c0,0.581-0.719,1.053-1.551,1.495l-4.182,2.326l-0.416-0.554L218.855,27.262z"/>
		<path fill="#414141" d="M226.967,35.155c0.248-0.887,0.248-1.274-0.416-1.33l-1.717-0.138L225,33.022l5.068-0.775l0.139,0.139
			l-1.801,6.037h0.084c1.66-3.24,4.541-6.176,7.199-6.176c2.271,0,2.604,1.828,1.967,4.016l-2.16,7.256
			c-0.25,0.886-0.277,1.523,0.277,1.523c0.775,0,1.994-1.967,2.492-2.936l0.664,0.388c-0.941,2.104-2.492,3.987-4.568,3.987
			c-1.496,0-1.855-1.163-1.412-2.714l2.381-8.114c0.305-1.08,0.055-1.966-0.914-1.966c-2.242,0-4.902,4.043-5.926,6.425
			c-0.721,1.717-1.191,3.212-1.994,6.037l-2.438,0.332L226.967,35.155z"/>
	</g>
</g>
</svg>
