<?xml version="1.0" encoding="utf-8"?>
<!-- Generator: Adobe Illustrator 15.0.0, SVG Export Plug-In . SVG Version: 6.00 Build 0)  -->
<!DOCTYPE svg PUBLIC "-//W3C//DTD SVG 1.1//EN" "http://www.w3.org/Graphics/SVG/1.1/DTD/svg11.dtd">
<svg version="1.1" id="Layer_1" xmlns="http://www.w3.org/2000/svg" xmlns:xlink="http://www.w3.org/1999/xlink" x="0px" y="0px"
	 width="212.173px" height="75px" viewBox="80.668 0 212.173 75" enable-background="new 80.668 0 212.173 75" xml:space="preserve"
	>
<g>
	<g>
		<path fill="#F1F1F2" d="M95.562,17.929c3.99-5.075,10.318-8.209,19.04-8.209c4.788,0,9.29,0.97,12.768,2.85l-2.051,8.894h-1.711
			c0.398-4.904-0.684-9.749-9.063-9.749c-13.625,0-18.127,13.339-18.127,22.46c0,10.089,5.073,14.706,11.971,14.706
			c5.927,0,6.669-1.425,7.067-3.077l2.109-8.608c0.515-1.994,0.114-2.622-0.97-2.736l-4.273-0.398l0.341-1.652h14.991l-0.341,1.652
			l-2.509,0.229c-0.969,0.113-1.311,0.969-1.766,2.906l-2.681,11.516c-3.248,1.196-7.923,2.166-12.083,2.166
			c-5.303,0-9.92-1.311-13.282-4.219c-2.965-2.565-4.845-7.183-4.845-12.882C90.147,28.76,91.8,22.717,95.562,17.929z"/>
		<path fill="#F1F1F2" d="M160.99,12.569h-11.115c-6.327,0-8.209,1.026-10.547,7.638h-1.709l2.109-9.632h28.958l0.285,0.74
			c-11.229,12.312-22.461,24.682-33.291,36.709h11.572c9.006,0,11.457-1.024,14.479-8.036h1.71l-2.906,10.032h-32.55l-0.228-0.742
			C138.987,36.967,150.159,24.597,160.99,12.569z"/>
	</g>
	<polygon fill="#F1F1F2" points="181.782,6.157 167.901,53.635 269.481,53.635 283.361,6.157 	"/>
	<g>
		<path fill="#404041" d="M204.443,15.59c4.356,0,7.494,2.208,7.494,5.171c0,1.918-2.324,3.254-3.719,3.254
			c-1.045,0-1.568-0.698-1.685-1.743c-0.349-3.485-1.626-4.648-3.484-4.648c-5.347,0-9.704,9.819-9.704,17.372
			c0,4.124,0.872,7.611,5.112,7.611c3.894,0,7.321-4.124,9.296-6.797l1.395,1.104c-4.009,6.68-8.946,8.539-13.245,8.539
			c-4.068,0-8.31-2.206-8.31-9.296C187.594,26.629,194.101,15.59,204.443,15.59z"/>
		<path fill="#404041" d="M231.516,15.59c4.356,0,7.494,2.208,7.494,5.171c0,1.918-2.324,3.254-3.719,3.254
			c-1.045,0-1.568-0.698-1.685-1.743c-0.349-3.485-1.626-4.648-3.485-4.648c-5.346,0-9.703,9.819-9.703,17.372
			c0,4.124,0.872,7.611,5.112,7.611c3.894,0,7.321-4.124,9.296-6.797l1.395,1.104c-4.009,6.68-8.947,8.539-13.246,8.539
			c-4.067,0-8.309-2.206-8.309-9.296C214.666,26.629,221.173,15.59,231.516,15.59z"/>
		<path fill="#404041" d="M243.191,36.796c0.988,0,1.51,0.639,1.858,1.743c0.93,3.079,3.079,4.881,5.229,4.881
			c2.44,0,4.184-1.627,4.184-4.357c0-2.267-1.511-4.822-4.009-6.797c-3.021-2.441-5.113-5.113-5.113-8.135
			c0-4.707,3.487-8.541,9.412-8.541c5.172,0,7.38,2.731,7.38,4.532c0,1.8-1.628,2.673-2.789,2.673c-0.872,0-1.337-0.465-1.627-1.163
			c-1.221-2.729-2.73-4.009-4.648-4.009c-2.149,0-3.603,1.918-3.603,3.777c0,1.626,0.64,3.544,4.126,6.39
			c3.894,3.196,5.345,5.695,5.345,8.89c0,4.764-3.775,8.772-10.052,8.772c-5.519,0-8.715-3.021-8.715-5.519
			C240.169,38.364,241.447,36.796,243.191,36.796z"/>
	</g>
	<g>
		<path fill="#BBBDBF" d="M90.703,62.242h2.363L93,62.513l-0.606,0.056c-0.15,0.009-0.215,0.085-0.195,0.3l0.307,4.697h0.046
			l2.531-5.154h0.654l0.476,5.154h0.038l1.119-2.345c0.569-1.187,0.915-1.952,1.066-2.324c0.074-0.197,0.064-0.3-0.085-0.319
			l-0.607-0.064l0.048-0.271h2.091l-0.046,0.271c-0.581,0.056-0.646,0.112-0.907,0.561c-0.167,0.29-0.645,1.232-1.166,2.297
			l-1.626,3.332h-0.653l-0.485-5.144h-0.046l-2.559,5.144h-0.654l-0.41-5.751c-0.019-0.28-0.064-0.374-0.271-0.393l-0.411-0.046
			L90.703,62.242z"/>
		<path fill="#BBBDBF" d="M101.408,62.242h2.362l-0.064,0.271l-0.607,0.056c-0.149,0.009-0.216,0.085-0.197,0.3l0.31,4.697h0.047
			l2.531-5.154h0.652l0.477,5.154h0.036l1.123-2.345c0.569-1.187,0.914-1.952,1.062-2.324c0.075-0.197,0.066-0.3-0.084-0.319
			l-0.606-0.064l0.047-0.271h2.093l-0.05,0.271c-0.576,0.056-0.643,0.112-0.902,0.561c-0.171,0.29-0.646,1.232-1.169,2.297
			l-1.624,3.332h-0.654l-0.485-5.144h-0.048l-2.558,5.144h-0.652l-0.412-5.751c-0.019-0.28-0.066-0.374-0.271-0.393l-0.41-0.046
			L101.408,62.242z"/>
		<path fill="#BBBDBF" d="M112.114,62.242h2.363l-0.066,0.271l-0.606,0.056c-0.15,0.009-0.215,0.085-0.195,0.3l0.307,4.697h0.046
			l2.531-5.154h0.654l0.476,5.154h0.038l1.119-2.345c0.569-1.187,0.915-1.952,1.066-2.324c0.074-0.197,0.064-0.3-0.085-0.319
			l-0.607-0.064l0.048-0.271h2.091l-0.046,0.271c-0.581,0.056-0.646,0.112-0.907,0.561c-0.167,0.29-0.645,1.232-1.166,2.297
			l-1.626,3.332h-0.653l-0.485-5.144h-0.046l-2.559,5.144h-0.654l-0.41-5.751c-0.019-0.28-0.064-0.374-0.271-0.393l-0.411-0.046
			L112.114,62.242z"/>
		<path fill="#BBBDBF" d="M121.998,67.648c0.334,0,0.531,0.242,0.531,0.522c0,0.392-0.243,0.646-0.607,0.646
			c-0.335,0-0.53-0.235-0.53-0.531C121.392,67.902,121.642,67.648,121.998,67.648z"/>
		<path fill="#BBBDBF" d="M126.919,63.446c0.653-0.831,1.69-1.345,3.119-1.345c0.785,0,1.521,0.159,2.091,0.467l-0.334,1.457h-0.28
			c0.064-0.803-0.114-1.596-1.486-1.596c-2.23,0-2.969,2.184-2.969,3.679c0,1.652,0.831,2.408,1.962,2.408
			c0.972,0,1.093-0.231,1.157-0.505l0.346-1.408c0.083-0.328,0.019-0.431-0.16-0.45l-0.7-0.064l0.056-0.271h2.457l-0.056,0.271
			l-0.411,0.038c-0.158,0.018-0.215,0.157-0.291,0.477l-0.438,1.887c-0.533,0.193-1.298,0.353-1.979,0.353
			c-0.869,0-1.624-0.212-2.177-0.69c-0.485-0.42-0.795-1.177-0.795-2.11C126.031,65.221,126.305,64.229,126.919,63.446z"/>
		<path fill="#BBBDBF" d="M133.302,68.433l0.307-0.037c0.291-0.027,0.448-0.129,0.748-0.616c0.345-0.562,1.119-1.952,1.597-2.783
			l1.567-2.754h0.664l0.69,5.622c0.048,0.383,0.084,0.512,0.374,0.542l0.354,0.026l-0.057,0.27h-2.296l0.058-0.27l0.493-0.045
			c0.186-0.02,0.262-0.095,0.233-0.364l-0.215-1.812h-2.091c-0.345,0.626-0.654,1.232-0.964,1.831
			c-0.083,0.193-0.064,0.326,0.122,0.346l0.516,0.045l-0.057,0.27h-2.103L133.302,68.433z M137.774,65.855l-0.328-2.745h-0.017
			c-0.505,0.905-1.019,1.821-1.514,2.745H137.774z"/>
		<path fill="#BBBDBF" d="M146.74,62.568h-1.821c-1.035,0-1.343,0.169-1.726,1.252h-0.281l0.346-1.578H148l0.05,0.121
			c-1.84,2.017-3.681,4.043-5.454,6.013h1.895c1.477,0,1.879-0.167,2.372-1.315h0.28l-0.476,1.642h-5.333l-0.036-0.121
			C143.136,66.565,144.967,64.539,146.74,62.568z"/>
		<path fill="#BBBDBF" d="M149.247,68.433l0.521-0.057c0.226-0.019,0.31-0.129,0.383-0.447l1.121-4.93
			c0.074-0.319,0.01-0.431-0.204-0.45l-0.56-0.036l0.064-0.271h4.724l-0.353,1.56h-0.281c0.084-0.841,0.112-1.233-1.066-1.233
			h-1.129c-0.157,0-0.214,0.047-0.26,0.271l-0.535,2.325h1.226c0.82,0,0.924-0.149,1.165-0.795h0.281l-0.429,1.952h-0.281
			c0.038-0.606,0.012-0.802-0.812-0.802h-1.222l-0.479,2.045c-0.103,0.438-0.093,0.579,0.048,0.689
			c0.121,0.095,0.588,0.121,1.045,0.121c1.149,0,1.569-0.167,2.045-1.315h0.281l-0.479,1.642h-4.872L149.247,68.433z"/>
		<path fill="#BBBDBF" d="M157.907,62.242h5.303l-0.355,1.56h-0.28c0.083-0.841,0.095-1.233-1.064-1.233h-0.588l-1.212,5.379
			c-0.066,0.288-0.02,0.429,0.24,0.448l0.682,0.037l-0.064,0.27h-2.876l0.064-0.27l0.606-0.037c0.281-0.02,0.384-0.16,0.448-0.448
			l1.214-5.379h-0.644c-0.916,0-1.25,0.28-1.55,1.233h-0.28L157.907,62.242z"/>
		<path fill="#BBBDBF" d="M163.119,68.433l0.309-0.037c0.288-0.027,0.448-0.129,0.746-0.616c0.345-0.562,1.121-1.952,1.595-2.783
			l1.571-2.754h0.662l0.69,5.622c0.048,0.383,0.085,0.512,0.374,0.542l0.354,0.026l-0.055,0.27h-2.298l0.055-0.27l0.496-0.045
			c0.188-0.02,0.262-0.095,0.232-0.364l-0.214-1.812h-2.093c-0.345,0.626-0.652,1.232-0.96,1.831
			c-0.083,0.193-0.066,0.326,0.122,0.346l0.512,0.045l-0.057,0.27h-2.099L163.119,68.433z M167.59,65.855l-0.326-2.745h-0.019
			c-0.505,0.905-1.017,1.821-1.512,2.745H167.59z"/>
		<path fill="#BBBDBF" d="M171.403,68.433l0.523-0.057c0.225-0.019,0.319-0.141,0.384-0.447l1.111-4.911
			c0.064-0.31,0.02-0.44-0.197-0.459l-0.55-0.046l0.057-0.271h2.512c1.036,0,1.874,0.214,2.417,0.671
			c0.531,0.45,0.805,1.195,0.805,1.952c0,0.56-0.095,1.346-0.626,2.147c-0.674,1.019-1.757,1.689-3.624,1.689h-2.866L171.403,68.433
			z M173.973,68.376c1.55,0,2.352-0.577,2.885-1.456c0.42-0.69,0.605-1.457,0.605-2.259c0-0.748-0.167-2.055-2.109-2.093
			c-0.812,0-0.941,0.028-1.017,0.345l-1.131,4.989C173.112,68.312,173.458,68.376,173.973,68.376z"/>
		<path fill="#BBBDBF" d="M180.381,68.433l0.523-0.057c0.224-0.019,0.308-0.129,0.383-0.447l1.12-4.93
			c0.075-0.319,0.011-0.431-0.205-0.45l-0.56-0.036l0.066-0.271h4.724l-0.354,1.56h-0.279c0.084-0.841,0.11-1.233-1.066-1.233
			h-1.131c-0.157,0-0.212,0.047-0.26,0.271l-0.533,2.325h1.224c0.822,0,0.925-0.149,1.167-0.795h0.281l-0.429,1.952h-0.281
			c0.038-0.606,0.01-0.802-0.812-0.802h-1.224l-0.477,2.045c-0.103,0.438-0.095,0.579,0.046,0.689
			c0.121,0.095,0.588,0.121,1.047,0.121c1.147,0,1.567-0.167,2.045-1.315h0.281l-0.479,1.642h-4.873L180.381,68.433z"/>
		<path fill="#BBBDBF" d="M189.105,63.802c0.541-0.879,1.558-1.7,3.314-1.7c0.652,0,1.531,0.159,2.063,0.495l-0.337,1.4h-0.279
			c0.048-1.018-0.354-1.567-1.523-1.567c-0.998,0-1.735,0.541-2.202,1.324c-0.448,0.747-0.674,1.783-0.674,2.624
			c0,1.438,0.778,2.139,1.859,2.139c1.149,0,1.624-0.614,2.14-1.549h0.279l-0.457,1.484c-0.598,0.3-1.233,0.391-1.897,0.391
			c-2.314,0-2.922-1.475-2.922-2.708C188.47,65.491,188.592,64.632,189.105,63.802z"/>
		<path fill="#BBBDBF" d="M195.29,68.433l0.31-0.037c0.288-0.027,0.447-0.129,0.745-0.616c0.346-0.562,1.121-1.952,1.596-2.783
			l1.571-2.754h0.662l0.69,5.622c0.047,0.383,0.085,0.512,0.373,0.542l0.355,0.026l-0.056,0.27h-2.297l0.055-0.27l0.495-0.045
			c0.188-0.02,0.262-0.095,0.233-0.364l-0.215-1.812h-2.092c-0.346,0.626-0.653,1.232-0.96,1.831
			c-0.084,0.193-0.066,0.326,0.121,0.346l0.513,0.045l-0.058,0.27h-2.098L195.29,68.433z M199.762,65.855l-0.326-2.745h-0.02
			c-0.504,0.905-1.017,1.821-1.512,2.745H199.762z"/>
		<path fill="#BBBDBF" d="M203.575,68.433l0.514-0.057c0.224-0.019,0.317-0.121,0.393-0.447l1.119-4.911
			c0.076-0.31,0.012-0.44-0.204-0.459l-0.551-0.046l0.064-0.271h2.521c1.747,0,2.036,0.84,2.036,1.502
			c0,0.926-0.786,1.579-1.924,1.738v0.019c0.85,0.233,0.868,0.869,0.859,1.614c-0.01,0.486,0.036,0.832,0.131,0.991
			c0.111,0.187,0.336,0.289,0.747,0.326l-0.083,0.27h-0.729c-0.6,0-0.879-0.25-0.945-0.717c-0.083-0.691-0.007-1.41-0.064-1.746
			c-0.038-0.207-0.14-0.364-0.3-0.459c-0.14-0.094-0.4-0.122-0.709-0.122h-0.56l-0.515,2.271c-0.074,0.318-0.019,0.439,0.205,0.459
			l0.552,0.045l-0.055,0.27h-2.56L203.575,68.433z M206.564,65.332c1.203,0,1.924-0.569,1.924-1.681
			c0-0.812-0.562-1.083-1.168-1.083c-0.71,0-0.736,0.085-0.803,0.354l-0.553,2.409H206.564z"/>
		<path fill="#BBBDBF" d="M210.778,68.433l0.31-0.037c0.288-0.027,0.447-0.129,0.745-0.616c0.346-0.562,1.121-1.952,1.596-2.783
			l1.57-2.754h0.662l0.691,5.622c0.047,0.383,0.085,0.512,0.373,0.542l0.355,0.026l-0.056,0.27h-2.297l0.055-0.27l0.495-0.045
			c0.188-0.02,0.262-0.095,0.233-0.364l-0.215-1.812h-2.092c-0.346,0.626-0.653,1.232-0.96,1.831
			c-0.084,0.193-0.066,0.326,0.121,0.346l0.513,0.045l-0.058,0.27h-2.098L210.778,68.433z M215.25,65.855l-0.326-2.745h-0.02
			c-0.504,0.905-1.017,1.821-1.512,2.745H215.25z"/>
		<path fill="#BBBDBF" d="M220.054,63.802c0.542-0.879,1.56-1.7,3.315-1.7c0.653,0,1.529,0.159,2.064,0.495l-0.338,1.4h-0.28
			c0.047-1.018-0.354-1.567-1.521-1.567c-0.998,0-1.738,0.541-2.205,1.324c-0.447,0.747-0.671,1.783-0.671,2.624
			c0,1.438,0.773,2.139,1.859,2.139c1.147,0,1.623-0.614,2.138-1.549h0.278l-0.455,1.484c-0.6,0.3-1.232,0.391-1.896,0.391
			c-2.314,0-2.922-1.475-2.922-2.708C219.42,65.491,219.541,64.632,220.054,63.802z"/>
		<path fill="#BBBDBF" d="M226.238,68.433l0.307-0.037c0.293-0.027,0.45-0.129,0.748-0.616c0.346-0.562,1.121-1.952,1.598-2.783
			l1.568-2.754h0.662l0.69,5.622c0.05,0.383,0.086,0.512,0.376,0.542l0.353,0.026l-0.055,0.27h-2.298l0.058-0.27l0.493-0.045
			c0.188-0.02,0.262-0.095,0.235-0.364l-0.217-1.812h-2.091c-0.345,0.626-0.652,1.232-0.961,1.831
			c-0.084,0.193-0.066,0.326,0.121,0.346l0.514,0.045l-0.057,0.27h-2.101L226.238,68.433z M230.712,65.855l-0.327-2.745h-0.019
			c-0.505,0.905-1.017,1.821-1.514,2.745H230.712z"/>
		<path fill="#BBBDBF" d="M234.98,66.648h0.272c-0.057,1.242,0.69,1.868,1.549,1.868c0.933,0,1.411-0.691,1.411-1.354
			c0-0.748-0.448-1.141-1.195-1.512c-0.757-0.364-1.354-0.824-1.354-1.7c0-0.785,0.513-1.85,2.147-1.85
			c0.579,0,1.271,0.159,1.672,0.476l-0.336,1.308h-0.271c0.111-0.962-0.233-1.455-1.129-1.455c-0.812,0-1.298,0.521-1.298,1.186
			c0,0.71,0.662,1.026,1.203,1.308c0.944,0.485,1.4,1.017,1.4,1.856c0,1-0.551,2.045-2.36,2.063c-0.683,0-1.59-0.28-1.954-0.767
			L234.98,66.648z"/>
		<path fill="#BBBDBF" d="M242.314,67.648c0.336,0,0.531,0.242,0.531,0.522c0,0.392-0.243,0.646-0.607,0.646
			c-0.334,0-0.531-0.235-0.531-0.531C241.707,67.902,241.96,67.648,242.314,67.648z"/>
		<path fill="#BBBDBF" d="M246.985,63.802c0.542-0.879,1.56-1.7,3.314-1.7c0.654,0,1.53,0.159,2.063,0.495l-0.336,1.4h-0.28
			c0.046-1.018-0.354-1.567-1.521-1.567c-1,0-1.738,0.541-2.204,1.324c-0.448,0.747-0.672,1.783-0.672,2.624
			c0,1.438,0.773,2.139,1.857,2.139c1.147,0,1.626-0.614,2.138-1.549h0.281l-0.458,1.484c-0.598,0.3-1.232,0.391-1.895,0.391
			c-2.316,0-2.924-1.475-2.924-2.708C246.35,65.491,246.471,64.632,246.985,63.802z"/>
		<path fill="#BBBDBF" d="M255.037,63.82c0.542-0.897,1.466-1.719,2.959-1.719c1.541,0,2.699,0.821,2.699,2.735
			c0,0.364-0.085,1.316-0.588,2.233c-0.514,0.923-1.326,1.772-2.98,1.772c-1.855,0-2.735-1.12-2.735-2.66
			C254.392,65.565,254.524,64.689,255.037,63.82z M257.044,68.517c1.214,0,1.85-0.868,2.23-1.868c0.384-0.99,0.44-1.764,0.44-2.297
			c0-1.316-0.652-1.922-1.681-1.922c-0.99,0-1.652,0.681-2.083,1.567c-0.429,0.906-0.577,1.775-0.577,2.559
			C255.374,67.853,256.036,68.517,257.044,68.517z"/>
		<path fill="#BBBDBF" d="M262.566,68.433l0.29-0.026c0.27-0.03,0.438-0.106,0.551-0.402c0.111-0.31,0.216-0.664,0.326-1.158
			l0.878-3.828c0.074-0.31,0.01-0.431-0.205-0.449l-0.552-0.056l0.066-0.271h1.812c0.159,0.831,0.346,1.652,0.531,2.492l0.523,2.588
			h0.027l1.654-2.521c0.568-0.868,1.119-1.709,1.616-2.559h1.829l-0.065,0.271l-0.514,0.036c-0.233,0.02-0.316,0.15-0.393,0.469
			l-1.119,4.911c-0.066,0.3-0.02,0.429,0.204,0.447l0.551,0.057l-0.057,0.27h-2.539l0.058-0.27l0.512-0.057
			c0.224-0.019,0.318-0.129,0.393-0.447l1.147-4.885h-0.026l-3.633,5.549h-0.262l-1.121-5.549h-0.019l-0.858,3.802
			c-0.113,0.494-0.169,0.849-0.197,1.158c-0.026,0.289,0.133,0.372,0.431,0.402l0.362,0.026l-0.045,0.27h-2.205L262.566,68.433z"/>
	</g>
</g>
</svg>
